{
	"type": "Group",
	"label": "Test of widgets",
	"style": {
		"layout": {
			"direction": "column"
		}
	},
	"contents": [
                {
                        "type": "Link",
                        "title":"<p>Link</p>",
                        "url": "http://www.google.com",
                        "style": {
                        	"size": {
	                        	"minHeight": "auto",
	                        	"minWidth": "auto"
                        	}
                        }
                },
                {
                        "type": "Link",
                        "title":"<p>Contact us</p>",
                        "url": "http://www.google.com",
                        "style": {
                        	"size": {
	                        	"minHeight": "auto",
	                        	"minWidth": "auto"
                        	}
                        }
                },
                {
                        "type": "Link",
                        "title":"<p>About us</p>",
                        "url": "http://www.google.com",
                        "style": {
                        	"size": {
	                        	"minHeight": "auto",
	                        	"minWidth": "auto"
                        	}
                        }
                }
	]
}
